Reference, Value, Footprint, Datasheet
"U2","STM32G071KxT","Package_QFP:LQFP-32_7x7mm_P0.8mm",""
"D4","BAT54W","Package_TO_SOT_SMD:SOT-323_SC-70","https://assets.nexperia.com/documents/data-sheet/BAT54W_SER.pdf"
"D3","BAT54W","Package_TO_SOT_SMD:SOT-323_SC-70","https://assets.nexperia.com/documents/data-sheet/BAT54W_SER.pdf"
"J4","UART","Connector_PinHeader_2.54mm:PinHeader_1x06_P2.54mm_Vertical","~"
"J1","Conn_ARM_JTAG_SWD_10","CONN-ARM-JTAG-SWD:CONN-ARM-JTAG-SWD","http://infocenter.arm.com/help/topic/com.arm.doc.ddi0314h/DDI0314H_coresight_components_trm.pdf"
"R1","10k","Resistor_SMD:R_0603_1608Metric","~"
"U1","LD1117S33TR_SOT223","Package_TO_SOT_SMD:SOT-223-3_TabPin2","http://www.st.com/st-web-ui/static/active/en/resource/technical/document/datasheet/CD00000544.pdf"
"C4","100n","Capacitor_SMD:C_0603_1608Metric","~"
"J3","REG_PWR_SEL","Connector_PinHeader_2.54mm:PinHeader_1x03_P2.54mm_Vertical","~"
"J2","UART_PWR_SEL","Connector_PinHeader_2.54mm:PinHeader_1x03_P2.54mm_Vertical","~"
"SW1","SW_Push","Button_Switch_SMD:SW_SPST_PTS810","~"
"C2","100n","Capacitor_SMD:C_0603_1608Metric","~"
"C3","100n","Capacitor_SMD:C_0603_1608Metric","~"
"C1","4.7u","Capacitor_SMD:C_0603_1608Metric","~"
"C5","4.7u","Capacitor_SMD:C_0603_1608Metric","~"
"D1","LED","LED_SMD:LED_0603_1608Metric","~"
"R2","470","Resistor_SMD:R_0603_1608Metric","~"
"D2","LED","LED_SMD:LED_0603_1608Metric","~"
"R3","470","Resistor_SMD:R_0603_1608Metric","~"
"TP3","TestPoint","TestPoint:TestPoint_Keystone_5019_Minature","~"
"TP2","TestPoint","TestPoint:TestPoint_Keystone_5019_Minature","~"
"TP1","TestPoint","TestPoint:TestPoint_Keystone_5019_Minature","~"
"J5","PWR_IN","Connector_PinHeader_2.54mm:PinHeader_1x03_P2.54mm_Vertical","~"
"TP5","TestPoint","TestPoint:TestPoint_Keystone_5019_Minature","~"
"TP4","TestPoint","TestPoint:TestPoint_Keystone_5019_Minature","~"
"SW2","SW_SPST","300SP1J1BLKM2QE:300SP1J1BLKM2QE","~"
"SW3","SW_SPST","300SP1J1BLKM2QE:300SP1J1BLKM2QE","~"
"R8","10","","~"
"C7","4.7u","Capacitor_SMD:C_0603_1608Metric","~"
"J7","VOUT","Connector_PinHeader_2.54mm:PinHeader_1x02_P2.54mm_Vertical","~"
"R4","13k","Resistor_SMD:R_0603_1608Metric","~"
"R5","10k","Resistor_SMD:R_0603_1608Metric","~"
"U3","TC1411N","Package_DIP:DIP-8_W7.62mm",""
"D5","HERAF1606CG0G","","~"
"R6","10","","~"
"C8","47u","","~"
"L1","500u","","~"
"Q1","IRF530","Package_TO_SOT_THT:TO-220-3_Vertical","http://www.irf.com/product-info/datasheets/data/irf540n.pdf"
"C6","100n","Capacitor_SMD:C_0603_1608Metric","~"
"R7","10k","Resistor_SMD:R_0603_1608Metric","~"
"TP6","TestPoint","TestPoint:TestPoint_Keystone_5019_Minature","~"
"TP7","TestPoint","TestPoint:TestPoint_Keystone_5019_Minature","~"
