EESchema Schematic File Version 4
EELAYER 30 0
EELAYER END
$Descr User 9843 7087
encoding utf-8
Sheet 1 1
Title ""
Date ""
Rev ""
Comp ""
Comment1 ""
Comment2 ""
Comment3 ""
Comment4 ""
$EndDescr
$Comp
L STM32G070:STM32G070KxT U2
U 1 1 605AB84C
P 3250 2450
F 0 "U2" H 2600 3150 50  0000 L CNN
F 1 "STM32G071KxT" H 2950 2200 50  0000 L CNN
F 2 "Package_QFP:LQFP-32_7x7mm_P0.8mm" H 1800 3350 50  0001 C CNN
F 3 "" H 1800 3350 50  0001 C CNN
	1    3250 2450
	1    0    0    -1  
$EndComp
$Comp
L Diode:BAT54W D4
U 1 1 605B3A21
P 4500 4250
F 0 "D4" V 4500 4350 50  0000 L CNN
F 1 "BAT54W" H 4350 4150 50  0000 L CNN
F 2 "Package_TO_SOT_SMD:SOT-323_SC-70" H 4500 4075 50  0001 C CNN
F 3 "https://assets.nexperia.com/documents/data-sheet/BAT54W_SER.pdf" H 4500 4250 50  0001 C CNN
	1    4500 4250
	0    1    1    0   
$EndComp
$Comp
L Diode:BAT54W D3
U 1 1 605B43D4
P 4500 3850
F 0 "D3" V 4450 3950 50  0000 L CNN
F 1 "BAT54W" H 4350 3750 50  0000 L CNN
F 2 "Package_TO_SOT_SMD:SOT-323_SC-70" H 4500 3675 50  0001 C CNN
F 3 "https://assets.nexperia.com/documents/data-sheet/BAT54W_SER.pdf" H 4500 3850 50  0001 C CNN
	1    4500 3850
	0    1    1    0   
$EndComp
$Comp
L Connector:Conn_01x06_Male J4
U 1 1 605B60D0
P 2000 4350
F 0 "J4" H 1972 4232 50  0000 R CNN
F 1 "UART" H 1972 4323 50  0000 R CNN
F 2 "Connector_PinHeader_2.54mm:PinHeader_1x06_P2.54mm_Vertical" H 2000 4350 50  0001 C CNN
F 3 "~" H 2000 4350 50  0001 C CNN
	1    2000 4350
	-1   0    0    1   
$EndComp
$Comp
L Connector:Conn_ARM_JTAG_SWD_10 J1
U 1 1 605B78BF
P 1150 1400
F 0 "J1" H 850 1950 50  0000 R CNN
F 1 "Conn_ARM_JTAG_SWD_10" V 700 1850 50  0000 R CNN
F 2 "CONN-ARM-JTAG-SWD:CONN-ARM-JTAG-SWD" H 1150 1400 50  0001 C CNN
F 3 "http://infocenter.arm.com/help/topic/com.arm.doc.ddi0314h/DDI0314H_coresight_components_trm.pdf" V 800 150 50  0001 C CNN
	1    1150 1400
	1    0    0    -1  
$EndComp
$Comp
L Device:R_Small_US R1
U 1 1 605B948C
P 3750 1500
F 0 "R1" H 3818 1546 50  0000 L CNN
F 1 "10k" H 3818 1455 50  0000 L CNN
F 2 "Resistor_SMD:R_0603_1608Metric" H 3750 1500 50  0001 C CNN
F 3 "~" H 3750 1500 50  0001 C CNN
	1    3750 1500
	1    0    0    -1  
$EndComp
$Comp
L Connector:Conn_01x03_Male J3
U 1 1 605DD8F5
P 1450 4950
F 0 "J3" H 1558 5231 50  0000 C CNN
F 1 "REG_PWR_SEL" V 1400 4950 50  0000 C CNN
F 2 "Connector_PinHeader_2.54mm:PinHeader_1x03_P2.54mm_Vertical" H 1450 4950 50  0001 C CNN
F 3 "~" H 1450 4950 50  0001 C CNN
	1    1450 4950
	1    0    0    -1  
$EndComp
$Comp
L power:+12V #PWR0104
U 1 1 605F0685
P 1750 5100
F 0 "#PWR0104" H 1750 4950 50  0001 C CNN
F 1 "+12V" H 1900 5150 50  0000 C CNN
F 2 "" H 1750 5100 50  0001 C CNN
F 3 "" H 1750 5100 50  0001 C CNN
	1    1750 5100
	1    0    0    -1  
$EndComp
Wire Wire Line
	1750 5100 1650 5100
Wire Wire Line
	1650 5100 1650 5050
$Comp
L power:GNDREF #PWR0106
U 1 1 60616EBE
P 1800 4550
F 0 "#PWR0106" H 1800 4300 50  0001 C CNN
F 1 "GNDREF" H 1805 4377 50  0001 C CNN
F 2 "" H 1800 4550 50  0001 C CNN
F 3 "" H 1800 4550 50  0001 C CNN
	1    1800 4550
	1    0    0    -1  
$EndComp
NoConn ~ 1800 4450
Text Label 1250 4250 0    50   ~ 0
UART_MCU_RX
Text Label 1250 4150 0    50   ~ 0
UART_MCU_TX
Wire Wire Line
	1250 4150 1800 4150
Wire Wire Line
	1800 4250 1250 4250
NoConn ~ 1800 4050
Text Label 3600 1400 3    50   ~ 0
SWCLK
Text Label 4300 2100 2    50   ~ 0
SWDIO
Wire Wire Line
	4300 2100 4000 2100
Wire Wire Line
	3600 1700 3600 1400
Wire Wire Line
	3600 1400 3750 1400
$Comp
L power:GNDREF #PWR0107
U 1 1 60644C09
P 3750 1600
F 0 "#PWR0107" H 3750 1350 50  0001 C CNN
F 1 "GNDREF" H 3755 1427 50  0001 C CNN
F 2 "" H 3750 1600 50  0001 C CNN
F 3 "" H 3750 1600 50  0001 C CNN
	1    3750 1600
	1    0    0    -1  
$EndComp
Text Label 1950 1300 2    50   ~ 0
SWCLK
Wire Wire Line
	1950 1300 1650 1300
Text Label 1950 1400 2    50   ~ 0
SWDIO
Wire Wire Line
	1950 1400 1650 1400
NoConn ~ 1650 1500
NoConn ~ 1650 1600
$Comp
L power:GNDREF #PWR0108
U 1 1 6064A4AA
P 1050 2000
F 0 "#PWR0108" H 1050 1750 50  0001 C CNN
F 1 "GNDREF" H 1055 1827 50  0001 C CNN
F 2 "" H 1050 2000 50  0001 C CNN
F 3 "" H 1050 2000 50  0001 C CNN
	1    1050 2000
	1    0    0    -1  
$EndComp
Wire Wire Line
	1050 2000 1150 2000
Connection ~ 1050 2000
$Comp
L power:+3.3V #PWR0109
U 1 1 6064C7FE
P 1150 800
F 0 "#PWR0109" H 1150 650 50  0001 C CNN
F 1 "+3.3V" H 1165 973 50  0000 C CNN
F 2 "" H 1150 800 50  0001 C CNN
F 3 "" H 1150 800 50  0001 C CNN
	1    1150 800 
	1    0    0    -1  
$EndComp
Text Label 1950 1100 2    50   ~ 0
~NRST
Wire Wire Line
	1950 1100 1650 1100
$Comp
L Switch:SW_Push SW1
U 1 1 60689AC6
P 2050 3000
F 0 "SW1" V 2004 3148 50  0000 L CNN
F 1 "SW_Push" V 2095 3148 50  0000 L CNN
F 2 "Button_Switch_SMD:SW_SPST_PTS810" H 2050 3200 50  0001 C CNN
F 3 "~" H 2050 3200 50  0001 C CNN
	1    2050 3000
	0    1    1    0   
$EndComp
$Comp
L Device:C_Small C2
U 1 1 6068A908
P 1900 3000
F 0 "C2" H 2100 2950 50  0000 R CNN
F 1 "100n" H 2200 3050 50  0000 R CNN
F 2 "Capacitor_SMD:C_0603_1608Metric" H 1900 3000 50  0001 C CNN
F 3 "~" H 1900 3000 50  0001 C CNN
	1    1900 3000
	-1   0    0    1   
$EndComp
Text Label 2150 2800 0    50   ~ 0
~NRST
Wire Wire Line
	2500 2600 2350 2600
Wire Wire Line
	2350 2600 2350 2800
Wire Wire Line
	2050 2800 2350 2800
Wire Wire Line
	1900 2900 1900 2800
Wire Wire Line
	1900 2800 2050 2800
Connection ~ 2050 2800
Wire Wire Line
	1900 3100 1900 3200
Wire Wire Line
	1900 3200 2050 3200
$Comp
L power:GNDREF #PWR0110
U 1 1 6069432E
P 2050 3200
F 0 "#PWR0110" H 2050 2950 50  0001 C CNN
F 1 "GNDREF" H 2055 3027 50  0001 C CNN
F 2 "" H 2050 3200 50  0001 C CNN
F 3 "" H 2050 3200 50  0001 C CNN
	1    2050 3200
	1    0    0    -1  
$EndComp
Connection ~ 2050 3200
$Comp
L Device:C_Small C3
U 1 1 60697946
P 2150 2400
F 0 "C3" V 2050 2300 50  0000 L CNN
F 1 "100n" V 2250 2300 50  0000 L CNN
F 2 "Capacitor_SMD:C_0603_1608Metric" H 2150 2400 50  0001 C CNN
F 3 "~" H 2150 2400 50  0001 C CNN
	1    2150 2400
	1    0    0    -1  
$EndComp
$Comp
L Device:C_Small C1
U 1 1 60697D68
P 1850 2400
F 0 "C1" V 1750 2300 50  0000 L CNN
F 1 "4.7u" V 1950 2300 50  0000 L CNN
F 2 "Capacitor_SMD:C_0603_1608Metric" H 1850 2400 50  0001 C CNN
F 3 "~" H 1850 2400 50  0001 C CNN
	1    1850 2400
	1    0    0    -1  
$EndComp
Wire Wire Line
	2500 2500 2150 2500
Connection ~ 2150 2500
Wire Wire Line
	2150 2500 1850 2500
Wire Wire Line
	2500 2400 2350 2400
Wire Wire Line
	2350 2400 2350 2300
Wire Wire Line
	2350 2300 2150 2300
Connection ~ 2150 2300
Wire Wire Line
	2150 2300 1850 2300
$Comp
L power:GNDREF #PWR0111
U 1 1 606BA4C0
P 2150 2500
F 0 "#PWR0111" H 2150 2250 50  0001 C CNN
F 1 "GNDREF" H 2155 2327 50  0001 C CNN
F 2 "" H 2150 2500 50  0001 C CNN
F 3 "" H 2150 2500 50  0001 C CNN
	1    2150 2500
	1    0    0    -1  
$EndComp
$Comp
L power:+3.3V #PWR0112
U 1 1 606BB118
P 2150 2300
F 0 "#PWR0112" H 2150 2150 50  0001 C CNN
F 1 "+3.3V" H 2165 2473 50  0000 C CNN
F 2 "" H 2150 2300 50  0001 C CNN
F 3 "" H 2150 2300 50  0001 C CNN
	1    2150 2300
	1    0    0    -1  
$EndComp
Text Label 4550 2600 2    50   ~ 0
UART_MCU_TX
Wire Wire Line
	4550 2600 4000 2600
Text Label 4550 2400 2    50   ~ 0
UART_MCU_RX
Wire Wire Line
	4550 2400 4000 2400
$Comp
L Device:LED D2
U 1 1 606E18D7
P 4150 3200
F 0 "D2" V 4189 3082 50  0000 R CNN
F 1 "LED" V 4098 3082 50  0000 R CNN
F 2 "LED_SMD:LED_0603_1608Metric" H 4150 3200 50  0001 C CNN
F 3 "~" H 4150 3200 50  0001 C CNN
	1    4150 3200
	0    -1   -1   0   
$EndComp
$Comp
L power:GNDREF #PWR0114
U 1 1 606E18DD
P 4150 3350
F 0 "#PWR0114" H 4150 3100 50  0001 C CNN
F 1 "GNDREF" H 4155 3177 50  0001 C CNN
F 2 "" H 4150 3350 50  0001 C CNN
F 3 "" H 4150 3350 50  0001 C CNN
	1    4150 3350
	1    0    0    -1  
$EndComp
$Comp
L Device:R_Small_US R3
U 1 1 606E18E3
P 4150 2950
F 0 "R3" H 4218 2996 50  0000 L CNN
F 1 "470" H 4218 2905 50  0000 L CNN
F 2 "Resistor_SMD:R_0603_1608Metric" H 4150 2950 50  0001 C CNN
F 3 "~" H 4150 2950 50  0001 C CNN
	1    4150 2950
	1    0    0    -1  
$EndComp
Wire Wire Line
	4000 2800 4150 2800
Wire Wire Line
	4150 2800 4150 2850
Text Label 3600 3550 1    50   ~ 0
ADC_IN
$Comp
L power:GNDREF #PWR0119
U 1 1 6073CD83
P 3200 3250
F 0 "#PWR0119" H 3200 3000 50  0001 C CNN
F 1 "GNDREF" H 3205 3077 50  0001 C CNN
F 2 "" H 3200 3250 50  0001 C CNN
F 3 "" H 3200 3250 50  0001 C CNN
	1    3200 3250
	1    0    0    -1  
$EndComp
Wire Wire Line
	2900 3200 3000 3200
Connection ~ 3000 3200
Wire Wire Line
	3000 3200 3100 3200
Connection ~ 3100 3200
Wire Wire Line
	3100 3200 3200 3200
Connection ~ 3200 3200
Wire Wire Line
	3200 3200 3300 3200
Connection ~ 3300 3200
Wire Wire Line
	3300 3200 3400 3200
Connection ~ 3400 3200
Wire Wire Line
	3400 3200 3500 3200
Wire Wire Line
	3200 3250 3200 3200
Wire Wire Line
	2900 1700 3000 1700
Connection ~ 3000 1700
Wire Wire Line
	3000 1700 3100 1700
Connection ~ 3100 1700
Wire Wire Line
	3100 1700 3200 1700
Connection ~ 3200 1700
Wire Wire Line
	3200 1700 3300 1700
Connection ~ 3300 1700
Wire Wire Line
	3300 1700 3400 1700
Connection ~ 3400 1700
Wire Wire Line
	3400 1700 3500 1700
$Comp
L power:GNDREF #PWR0120
U 1 1 60745A08
P 3100 1500
F 0 "#PWR0120" H 3100 1250 50  0001 C CNN
F 1 "GNDREF" H 3105 1327 50  0001 C CNN
F 2 "" H 3100 1500 50  0001 C CNN
F 3 "" H 3100 1500 50  0001 C CNN
	1    3100 1500
	1    0    0    -1  
$EndComp
Wire Wire Line
	3100 1500 3200 1500
Wire Wire Line
	3200 1500 3200 1700
Wire Wire Line
	4000 2300 4000 2200
$Comp
L power:GNDREF #PWR0121
U 1 1 6074A991
P 4100 2200
F 0 "#PWR0121" H 4100 1950 50  0001 C CNN
F 1 "GNDREF" H 4105 2027 50  0001 C CNN
F 2 "" H 4100 2200 50  0001 C CNN
F 3 "" H 4100 2200 50  0001 C CNN
	1    4100 2200
	1    0    0    -1  
$EndComp
Wire Wire Line
	4100 2200 4000 2200
Connection ~ 4000 2200
$Comp
L power:GNDREF #PWR0123
U 1 1 60750BBC
P 2500 2800
F 0 "#PWR0123" H 2500 2550 50  0001 C CNN
F 1 "GNDREF" H 2505 2627 50  0001 C CNN
F 2 "" H 2500 2800 50  0001 C CNN
F 3 "" H 2500 2800 50  0001 C CNN
	1    2500 2800
	1    0    0    -1  
$EndComp
Wire Wire Line
	2500 2800 2500 2700
Connection ~ 2500 2800
$Comp
L power:GNDREF #PWR0124
U 1 1 607549C6
P 2400 2100
F 0 "#PWR0124" H 2400 1850 50  0001 C CNN
F 1 "GNDREF" H 2405 1927 50  0001 C CNN
F 2 "" H 2400 2100 50  0001 C CNN
F 3 "" H 2400 2100 50  0001 C CNN
	1    2400 2100
	1    0    0    -1  
$EndComp
Wire Wire Line
	2400 2100 2500 2100
Wire Wire Line
	2500 2100 2500 2200
Connection ~ 2500 2100
Connection ~ 2500 2200
Wire Wire Line
	2500 2200 2500 2300
Wire Wire Line
	4500 4100 4500 4050
$Comp
L power:GNDREF #PWR0131
U 1 1 60834356
P 4500 4400
F 0 "#PWR0131" H 4500 4150 50  0001 C CNN
F 1 "GNDREF" H 4505 4227 50  0001 C CNN
F 2 "" H 4500 4400 50  0001 C CNN
F 3 "" H 4500 4400 50  0001 C CNN
	1    4500 4400
	1    0    0    -1  
$EndComp
$Comp
L power:+3.3V #PWR0132
U 1 1 6083557D
P 4500 3700
F 0 "#PWR0132" H 4500 3550 50  0001 C CNN
F 1 "+3.3V" H 4515 3873 50  0000 C CNN
F 2 "" H 4500 3700 50  0001 C CNN
F 3 "" H 4500 3700 50  0001 C CNN
	1    4500 3700
	1    0    0    -1  
$EndComp
Wire Wire Line
	3600 4050 4500 4050
Wire Wire Line
	3600 3200 3600 4050
Connection ~ 4500 4050
Wire Wire Line
	4500 4050 4500 4000
Text Notes 6800 2500 0    50   ~ 0
DC-DC Converter
Wire Notes Line
	7550 2500 7550 3950
Wire Notes Line
	6400 2500 7550 2500
Wire Notes Line
	6400 3950 6400 2500
Text Label 6150 1900 0    50   ~ 0
+7V
Wire Wire Line
	6300 1950 6300 1900
$Comp
L Connector:TestPoint TP3
U 1 1 606CBC65
P 6750 1900
F 0 "TP3" H 6808 2018 50  0000 L CNN
F 1 "TestPoint" H 6600 2100 50  0000 L CNN
F 2 "TestPoint:TestPoint_Keystone_5019_Minature" H 6950 1900 50  0001 C CNN
F 3 "~" H 6950 1900 50  0001 C CNN
	1    6750 1900
	1    0    0    -1  
$EndComp
Wire Wire Line
	5400 1900 5200 1900
Wire Wire Line
	5200 1900 5200 2200
Connection ~ 5200 1900
$Comp
L Connector:TestPoint TP2
U 1 1 606BC76C
P 5400 1900
F 0 "TP2" V 5300 1900 50  0000 L CNN
F 1 "TestPoint" H 5200 2100 50  0000 L CNN
F 2 "TestPoint:TestPoint_Keystone_5019_Minature" H 5600 1900 50  0001 C CNN
F 3 "~" H 5600 1900 50  0001 C CNN
	1    5400 1900
	0    1    1    0   
$EndComp
$Comp
L Connector:TestPoint TP1
U 1 1 6064F1DE
P 6150 2200
F 0 "TP1" V 6200 2200 50  0000 L CNN
F 1 "TestPoint" V 6050 2250 50  0000 L CNN
F 2 "TestPoint:TestPoint_Keystone_5019_Minature" H 6350 2200 50  0001 C CNN
F 3 "~" H 6350 2200 50  0001 C CNN
	1    6150 2200
	0    -1   -1   0   
$EndComp
Connection ~ 8300 3650
Wire Wire Line
	8300 3650 8300 3250
Wire Wire Line
	8150 3650 8300 3650
$Comp
L Connector:TestPoint TP5
U 1 1 6062DC71
P 8150 3650
F 0 "TP5" H 8000 3700 50  0000 L CNN
F 1 "TestPoint" H 8000 3850 50  0000 L CNN
F 2 "TestPoint:TestPoint_Keystone_5019_Minature" H 8350 3650 50  0001 C CNN
F 3 "~" H 8350 3650 50  0001 C CNN
	1    8150 3650
	1    0    0    -1  
$EndComp
Wire Wire Line
	8100 3150 8300 3150
Connection ~ 8100 3150
$Comp
L Connector:TestPoint TP4
U 1 1 60621BF1
P 8100 3150
F 0 "TP4" H 8158 3268 50  0000 L CNN
F 1 "TestPoint" H 7950 3350 50  0000 L CNN
F 2 "TestPoint:TestPoint_Keystone_5019_Minature" H 8300 3150 50  0001 C CNN
F 3 "~" H 8300 3150 50  0001 C CNN
	1    8100 3150
	1    0    0    -1  
$EndComp
Wire Wire Line
	7950 3150 8100 3150
Connection ~ 7950 3150
Wire Wire Line
	7950 4050 7950 3150
Wire Wire Line
	5100 4050 7950 4050
Connection ~ 4800 4050
Wire Wire Line
	4500 4050 4800 4050
$Comp
L power:GNDREF #PWR0130
U 1 1 60833F7D
P 4800 4400
F 0 "#PWR0130" H 4800 4150 50  0001 C CNN
F 1 "GNDREF" H 4805 4227 50  0001 C CNN
F 2 "" H 4800 4400 50  0001 C CNN
F 3 "" H 4800 4400 50  0001 C CNN
	1    4800 4400
	1    0    0    -1  
$EndComp
Wire Wire Line
	4800 4050 4800 4200
Wire Wire Line
	4800 4050 4900 4050
Text Label 7700 3150 0    50   ~ 0
Vout
$Comp
L power:GNDREF #PWR0128
U 1 1 607B38B8
P 8300 3650
F 0 "#PWR0128" H 8300 3400 50  0001 C CNN
F 1 "GNDREF" H 8305 3477 50  0001 C CNN
F 2 "" H 8300 3650 50  0001 C CNN
F 3 "" H 8300 3650 50  0001 C CNN
	1    8300 3650
	1    0    0    -1  
$EndComp
$Comp
L power:GNDREF #PWR0126
U 1 1 60797C4A
P 7300 3550
F 0 "#PWR0126" H 7300 3300 50  0001 C CNN
F 1 "GNDREF" H 7305 3377 50  0001 C CNN
F 2 "" H 7300 3550 50  0001 C CNN
F 3 "" H 7300 3550 50  0001 C CNN
	1    7300 3550
	1    0    0    -1  
$EndComp
Wire Wire Line
	6750 3150 6750 2950
Connection ~ 6750 3150
Wire Wire Line
	6900 3150 6750 3150
$Comp
L power:GNDREF #PWR0125
U 1 1 60775BEE
P 6750 3550
F 0 "#PWR0125" H 6750 3300 50  0001 C CNN
F 1 "GNDREF" H 6755 3377 50  0001 C CNN
F 2 "" H 6750 3550 50  0001 C CNN
F 3 "" H 6750 3550 50  0001 C CNN
	1    6750 3550
	1    0    0    -1  
$EndComp
Wire Wire Line
	6750 3250 6750 3150
Text Label 6050 2750 2    50   ~ 0
PWM_12V
Wire Wire Line
	4650 2500 4000 2500
$Comp
L power:GNDREF #PWR0122
U 1 1 6074CA83
P 4650 2500
F 0 "#PWR0122" H 4650 2250 50  0001 C CNN
F 1 "GNDREF" H 4655 2327 50  0001 C CNN
F 2 "" H 4650 2500 50  0001 C CNN
F 3 "" H 4650 2500 50  0001 C CNN
	1    4650 2500
	1    0    0    -1  
$EndComp
Connection ~ 5200 2200
Wire Wire Line
	5200 2400 5150 2400
Connection ~ 5200 2400
Wire Wire Line
	5200 2200 5200 2400
$Comp
L power:GNDREF #PWR0118
U 1 1 6071CBD4
P 5400 2200
F 0 "#PWR0118" H 5400 1950 50  0001 C CNN
F 1 "GNDREF" H 5405 2027 50  0001 C CNN
F 2 "" H 5400 2200 50  0001 C CNN
F 3 "" H 5400 2200 50  0001 C CNN
	1    5400 2200
	1    0    0    -1  
$EndComp
Wire Wire Line
	5250 2400 5200 2400
Wire Wire Line
	5200 3100 5250 3100
Connection ~ 5200 3100
Wire Wire Line
	5150 3100 5200 3100
$Comp
L power:GNDREF #PWR0117
U 1 1 60713B9A
P 5200 3100
F 0 "#PWR0117" H 5200 2850 50  0001 C CNN
F 1 "GNDREF" H 5205 2927 50  0001 C CNN
F 2 "" H 5200 3100 50  0001 C CNN
F 3 "" H 5200 3100 50  0001 C CNN
	1    5200 3100
	1    0    0    -1  
$EndComp
$Comp
L power:GNDREF #PWR0116
U 1 1 606FBF58
P 5050 2250
F 0 "#PWR0116" H 5050 2000 50  0001 C CNN
F 1 "GNDREF" H 5055 2077 50  0001 C CNN
F 2 "" H 5050 2250 50  0001 C CNN
F 3 "" H 5050 2250 50  0001 C CNN
	1    5050 2250
	1    0    0    -1  
$EndComp
$Comp
L power:+12V #PWR0103
U 1 1 605E7EE1
P 5200 1900
F 0 "#PWR0103" H 5200 1750 50  0001 C CNN
F 1 "+12V" H 5215 2073 50  0000 C CNN
F 2 "" H 5200 1900 50  0001 C CNN
F 3 "" H 5200 1900 50  0001 C CNN
	1    5200 1900
	1    0    0    -1  
$EndComp
$Comp
L Connector_Generic:Conn_01x02 J7
U 1 1 605C07EA
P 8500 3250
F 0 "J7" H 8550 3050 50  0000 R CNN
F 1 "VOUT" H 8600 3350 50  0000 R CNN
F 2 "TerminalBlock:TerminalBlock_bornier-2_P5.08mm" H 8500 3250 50  0001 C CNN
F 3 "~" H 8500 3250 50  0001 C CNN
	1    8500 3250
	1    0    0    1   
$EndComp
$Comp
L Device:R_Small_US R4
U 1 1 605B289B
P 4800 4300
F 0 "R4" H 4868 4346 50  0000 L CNN
F 1 "10k" H 4868 4255 50  0000 L CNN
F 2 "Resistor_SMD:R_0603_1608Metric" H 4800 4300 50  0001 C CNN
F 3 "~" H 4800 4300 50  0001 C CNN
	1    4800 4300
	1    0    0    -1  
$EndComp
$Comp
L Device:R_Small_US R5
U 1 1 605B254D
P 5000 4050
F 0 "R5" V 4900 4000 50  0000 L CNN
F 1 "12k" V 5100 4000 50  0000 L CNN
F 2 "Resistor_SMD:R_0603_1608Metric" H 5000 4050 50  0001 C CNN
F 3 "~" H 5000 4050 50  0001 C CNN
	1    5000 4050
	0    1    1    0   
$EndComp
$Comp
L Device:D D5
U 1 1 605AAB18
P 6750 3400
F 0 "D5" V 6750 3450 50  0000 L CNN
F 1 "HERAF1606CG0G" H 6600 3300 50  0000 L CNN
F 2 "Package_TO_SOT_THT:TO-220-2_Horizontal_TabDown" H 6750 3400 50  0001 C CNN
F 3 "~" H 6750 3400 50  0001 C CNN
	1    6750 3400
	0    1    1    0   
$EndComp
$Comp
L Device:CP_Small C8
U 1 1 605A9EDC
P 7300 3350
F 0 "C8" H 7350 3450 50  0000 L CNN
F 1 "220u" H 7350 3250 50  0000 L CNN
F 2 "Capacitor_THT:CP_Radial_D13.0mm_P5.00mm" H 7300 3350 50  0001 C CNN
F 3 "~" H 7300 3350 50  0001 C CNN
	1    7300 3350
	1    0    0    -1  
$EndComp
$Comp
L Device:L L1
U 1 1 605A948F
P 7050 3150
F 0 "L1" V 7150 3150 50  0000 C CNN
F 1 "500u" V 7000 3150 50  0000 C CNN
F 2 "5256-RC-Bourns:5256-RC-Bourns" H 7050 3150 50  0001 C CNN
F 3 "~" H 7050 3150 50  0001 C CNN
	1    7050 3150
	0    -1   -1   0   
$EndComp
$Comp
L Transistor_FET:IRF540N Q1
U 1 1 605A8AF5
P 6650 2750
F 0 "Q1" H 6550 2900 50  0000 L CNN
F 1 "IRF530" V 6900 2650 50  0000 L CNN
F 2 "to220-heatsink:to220-heatsink" H 6900 2675 50  0001 L CIN
F 3 "http://www.irf.com/product-info/datasheets/data/irf540n.pdf" H 6650 2750 50  0001 L CNN
	1    6650 2750
	1    0    0    -1  
$EndComp
Wire Wire Line
	4000 2700 4500 2700
Wire Wire Line
	4500 2700 4800 2700
Connection ~ 4500 2700
Text Label 4450 2700 2    50   ~ 0
PWM_3.3V
$Comp
L Device:C_Small C6
U 1 1 60717FDA
P 5300 2200
F 0 "C6" V 5200 2200 50  0000 C CNN
F 1 "100n" V 5400 2200 50  0000 C CNN
F 2 "Capacitor_SMD:C_0603_1608Metric" H 5300 2200 50  0001 C CNN
F 3 "~" H 5300 2200 50  0001 C CNN
	1    5300 2200
	0    1    1    0   
$EndComp
Wire Wire Line
	4500 2800 4500 2700
$Comp
L Device:R_Small_US R7
U 1 1 60604790
P 4500 2900
F 0 "R7" H 4568 2946 50  0000 L CNN
F 1 "10k" H 4568 2855 50  0000 L CNN
F 2 "Resistor_SMD:R_0603_1608Metric" H 4500 2900 50  0001 C CNN
F 3 "~" H 4500 2900 50  0001 C CNN
	1    4500 2900
	1    0    0    -1  
$EndComp
$Comp
L power:GNDREF #PWR01
U 1 1 60608AFF
P 4500 3000
F 0 "#PWR01" H 4500 2750 50  0001 C CNN
F 1 "GNDREF" H 4505 2827 50  0001 C CNN
F 2 "" H 4500 3000 50  0001 C CNN
F 3 "" H 4500 3000 50  0001 C CNN
	1    4500 3000
	1    0    0    -1  
$EndComp
Wire Wire Line
	5650 2700 5650 2750
Connection ~ 5650 2750
Wire Wire Line
	5650 2750 5650 2800
Wire Wire Line
	5650 2750 6150 2750
$Comp
L Connector:TestPoint TP6
U 1 1 607A4062
P 6150 2750
F 0 "TP6" H 6208 2868 50  0000 L CNN
F 1 "TestPoint" H 6000 2950 50  0000 L CNN
F 2 "TestPoint:TestPoint_Keystone_5019_Minature" H 6350 2750 50  0001 C CNN
F 3 "~" H 6350 2750 50  0001 C CNN
	1    6150 2750
	1    0    0    -1  
$EndComp
Connection ~ 6150 2750
Wire Wire Line
	6150 2750 6450 2750
$Comp
L Connector:TestPoint TP7
U 1 1 607EF4DC
P 6550 3150
F 0 "TP7" H 6600 3250 50  0000 L CNN
F 1 "TestPoint" V 6450 3050 50  0000 L CNN
F 2 "TestPoint:TestPoint_Keystone_5019_Minature" H 6750 3150 50  0001 C CNN
F 3 "~" H 6750 3150 50  0001 C CNN
	1    6550 3150
	1    0    0    -1  
$EndComp
Wire Wire Line
	6750 3150 6550 3150
Wire Wire Line
	7200 3150 7300 3150
Wire Wire Line
	7300 3250 7300 3150
Connection ~ 7300 3150
Wire Wire Line
	7300 3550 7300 3450
Wire Wire Line
	7300 3150 7950 3150
Wire Notes Line
	7550 3950 6400 3950
$Comp
L Connector_Generic:Conn_01x02 J5
U 1 1 606890CB
P 4850 2000
F 0 "J5" H 4850 1800 50  0000 C CNN
F 1 "12V_IN" V 4950 1950 50  0000 C CNN
F 2 "TerminalBlock:TerminalBlock_bornier-2_P5.08mm" H 4850 2000 50  0001 C CNN
F 3 "~" H 4850 2000 50  0001 C CNN
	1    4850 2000
	-1   0    0    1   
$EndComp
$Comp
L Connector_Generic:Conn_01x02 J6
U 1 1 60689987
P 5950 2000
F 0 "J6" H 5950 1800 50  0000 C CNN
F 1 "7V_IN" V 6050 1950 50  0000 C CNN
F 2 "TerminalBlock:TerminalBlock_bornier-2_P5.08mm" H 5950 2000 50  0001 C CNN
F 3 "~" H 5950 2000 50  0001 C CNN
	1    5950 2000
	-1   0    0    1   
$EndComp
$Comp
L power:GNDREF #PWR0115
U 1 1 606FD338
P 6150 2250
F 0 "#PWR0115" H 6150 2000 50  0001 C CNN
F 1 "GNDREF" H 6155 2077 50  0001 C CNN
F 2 "" H 6150 2250 50  0001 C CNN
F 3 "" H 6150 2250 50  0001 C CNN
	1    6150 2250
	1    0    0    -1  
$EndComp
Wire Wire Line
	6150 2250 6150 2200
Connection ~ 6150 2200
Wire Wire Line
	6150 2200 6150 2000
Wire Wire Line
	6150 1900 6300 1900
$Comp
L Device:C_Small C7
U 1 1 605CD7EF
P 6300 2050
F 0 "C7" H 6350 2150 50  0000 L CNN
F 1 "3.3u" V 6400 1950 50  0000 L CNN
F 2 "Capacitor_THT:CP_Radial_Tantal_D5.0mm_P2.50mm" H 6300 2050 50  0001 C CNN
F 3 "~" H 6300 2050 50  0001 C CNN
	1    6300 2050
	1    0    0    -1  
$EndComp
Wire Wire Line
	6150 2200 6300 2200
Wire Wire Line
	6300 2200 6300 2150
Wire Wire Line
	6300 1900 6550 1900
Connection ~ 6300 1900
Connection ~ 6750 1900
$Comp
L TC1413N:TC1413N U3
U 1 1 605B0864
P 5200 2750
F 0 "U3" H 4950 3050 50  0000 L CNN
F 1 "TC1413N" H 5300 3050 50  0000 L CNN
F 2 "Package_DIP:DIP-8_W7.62mm" H 4450 3250 50  0001 C CNN
F 3 "" H 4450 3250 50  0001 C CNN
	1    5200 2750
	1    0    0    -1  
$EndComp
$Comp
L power:GNDREF #PWR0127
U 1 1 60761F5B
P 4800 2850
F 0 "#PWR0127" H 4800 2600 50  0001 C CNN
F 1 "GNDREF" H 4805 2677 50  0001 C CNN
F 2 "" H 4800 2850 50  0001 C CNN
F 3 "" H 4800 2850 50  0001 C CNN
	1    4800 2850
	1    0    0    -1  
$EndComp
Wire Wire Line
	4800 2850 4800 2800
Connection ~ 6300 2200
Wire Wire Line
	6300 2200 6550 2200
Wire Wire Line
	6550 2150 6550 2200
Wire Wire Line
	6550 1950 6550 1900
Connection ~ 6550 1900
Wire Wire Line
	6550 1900 6750 1900
$Comp
L Device:C_Small C9
U 1 1 6080490B
P 6550 2050
F 0 "C9" H 6600 2150 50  0000 L CNN
F 1 "100n" V 6650 1900 50  0000 L CNN
F 2 "Capacitor_SMD:C_0603_1608Metric" H 6550 2050 50  0001 C CNN
F 3 "~" H 6550 2050 50  0001 C CNN
	1    6550 2050
	1    0    0    -1  
$EndComp
Wire Wire Line
	6750 1900 6750 2550
$Comp
L Connector:TestPoint TP8
U 1 1 60824EEE
P 5050 2200
F 0 "TP8" V 5100 2200 50  0000 L CNN
F 1 "TestPoint" V 4950 2300 50  0000 L CNN
F 2 "TestPoint:TestPoint_Keystone_5019_Minature" H 5250 2200 50  0001 C CNN
F 3 "~" H 5250 2200 50  0001 C CNN
	1    5050 2200
	0    -1   -1   0   
$EndComp
Wire Wire Line
	5050 2250 5050 2200
Wire Wire Line
	5050 2200 5050 2000
Connection ~ 5050 2200
Wire Wire Line
	5200 1900 5050 1900
Text Label 2750 5300 0    50   ~ 0
GND
Wire Wire Line
	3600 4950 3600 5000
Wire Wire Line
	3200 4950 3600 4950
$Comp
L Device:R_Small_US R2
U 1 1 606D8AE5
P 3600 5100
F 0 "R2" H 3668 5146 50  0000 L CNN
F 1 "470" H 3668 5055 50  0000 L CNN
F 2 "Resistor_SMD:R_0603_1608Metric" H 3600 5100 50  0001 C CNN
F 3 "~" H 3600 5100 50  0001 C CNN
	1    3600 5100
	1    0    0    -1  
$EndComp
$Comp
L power:GNDREF #PWR0113
U 1 1 606D3218
P 3600 5500
F 0 "#PWR0113" H 3600 5250 50  0001 C CNN
F 1 "GNDREF" H 3605 5327 50  0001 C CNN
F 2 "" H 3600 5500 50  0001 C CNN
F 3 "" H 3600 5500 50  0001 C CNN
	1    3600 5500
	1    0    0    -1  
$EndComp
$Comp
L Device:LED D1
U 1 1 606CFBED
P 3600 5350
F 0 "D1" V 3639 5232 50  0000 R CNN
F 1 "LED" V 3548 5232 50  0000 R CNN
F 2 "LED_SMD:LED_0603_1608Metric" H 3600 5350 50  0001 C CNN
F 3 "~" H 3600 5350 50  0001 C CNN
	1    3600 5350
	0    -1   -1   0   
$EndComp
$Comp
L Device:C_Small C5
U 1 1 60698E92
P 3200 5150
F 0 "C5" H 3292 5196 50  0000 L CNN
F 1 "4.7u" H 3292 5105 50  0000 L CNN
F 2 "Capacitor_SMD:C_0603_1608Metric" H 3200 5150 50  0001 C CNN
F 3 "~" H 3200 5150 50  0001 C CNN
	1    3200 5150
	1    0    0    -1  
$EndComp
Connection ~ 2100 4950
Wire Wire Line
	1650 4950 2100 4950
Wire Wire Line
	2100 4950 2300 4950
Wire Wire Line
	2100 5050 2100 4950
Connection ~ 3200 4950
Wire Wire Line
	3200 4950 3200 5050
Wire Wire Line
	2900 4950 3200 4950
Wire Wire Line
	2100 5300 2100 5250
Wire Wire Line
	2600 5300 2100 5300
$Comp
L power:GNDREF #GND0101
U 1 1 605D8E35
P 2600 5350
F 0 "#GND0101" H 2600 5100 50  0001 C CNN
F 1 "GNDREF" H 2605 5177 50  0001 C CNN
F 2 "" H 2600 5350 50  0001 C CNN
F 3 "" H 2600 5350 50  0001 C CNN
	1    2600 5350
	1    0    0    -1  
$EndComp
Wire Wire Line
	2600 5300 2600 5250
Connection ~ 2600 5300
Wire Wire Line
	3200 5300 2600 5300
Wire Wire Line
	3200 5250 3200 5300
Wire Wire Line
	2600 5350 2600 5300
$Comp
L power:+3.3V #PWR0101
U 1 1 605D2F8B
P 3200 4950
F 0 "#PWR0101" H 3200 4800 50  0001 C CNN
F 1 "+3.3V" H 3215 5123 50  0000 C CNN
F 2 "" H 3200 4950 50  0001 C CNN
F 3 "" H 3200 4950 50  0001 C CNN
	1    3200 4950
	1    0    0    -1  
$EndComp
$Comp
L Device:C_Small C4
U 1 1 605CC279
P 2100 5150
F 0 "C4" H 2192 5196 50  0000 L CNN
F 1 "100n" H 2192 5105 50  0000 L CNN
F 2 "Capacitor_SMD:C_0603_1608Metric" H 2100 5150 50  0001 C CNN
F 3 "~" H 2100 5150 50  0001 C CNN
	1    2100 5150
	1    0    0    -1  
$EndComp
$Comp
L Regulator_Linear:LD1117S33TR_SOT223 U1
U 1 1 605CB9B0
P 2600 4950
F 0 "U1" H 2600 5192 50  0000 C CNN
F 1 "LD1117S33TR_SOT223" H 2600 5101 50  0000 C CNN
F 2 "Package_TO_SOT_SMD:SOT-223-3_TabPin2" H 2600 5150 50  0001 C CNN
F 3 "http://www.st.com/st-web-ui/static/active/en/resource/technical/document/datasheet/CD00000544.pdf" H 2700 4700 50  0001 C CNN
	1    2600 4950
	1    0    0    -1  
$EndComp
Wire Wire Line
	1650 4350 1800 4350
Wire Wire Line
	1650 4350 1650 4850
$EndSCHEMATC
