%TF.GenerationSoftware,KiCad,Pcbnew,5.1.9*%
%TF.CreationDate,2021-04-02T19:23:29-04:00*%
%TF.ProjectId,dcdc-buck-load,64636463-2d62-4756-936b-2d6c6f61642e,rev?*%
%TF.SameCoordinates,PXb626dc0PY848f8c0*%
%TF.FileFunction,Copper,L2,Bot*%
%TF.FilePolarity,Positive*%
%FSLAX46Y46*%
G04 Gerber Fmt 4.6, Leading zero omitted, Abs format (unit mm)*
G04 Created by KiCad (PCBNEW 5.1.9) date 2021-04-02 19:23:29*
%MOMM*%
%LPD*%
G01*
G04 APERTURE LIST*
%TA.AperFunction,ComponentPad*%
%ADD10O,3.500000X5.000000*%
%TD*%
%TA.AperFunction,ComponentPad*%
%ADD11O,2.400000X2.400000*%
%TD*%
%TA.AperFunction,ComponentPad*%
%ADD12C,2.400000*%
%TD*%
%TA.AperFunction,ComponentPad*%
%ADD13R,3.000000X3.000000*%
%TD*%
%TA.AperFunction,ComponentPad*%
%ADD14C,3.000000*%
%TD*%
G04 APERTURE END LIST*
D10*
%TO.P,SW2,1*%
%TO.N,/+V*%
X59750000Y72000000D03*
%TO.P,SW2,2*%
%TO.N,Net-(R2-Pad1)*%
X55000000Y72000000D03*
%TO.P,SW2,3*%
%TO.N,Net-(SW2-Pad3)*%
X50250000Y72000000D03*
%TD*%
%TO.P,SW1,1*%
%TO.N,/+V*%
X19750000Y72000000D03*
%TO.P,SW1,2*%
%TO.N,Net-(R1-Pad1)*%
X15000000Y72000000D03*
%TO.P,SW1,3*%
%TO.N,Net-(SW1-Pad3)*%
X10250000Y72000000D03*
%TD*%
D11*
%TO.P,R2,2*%
%TO.N,/GND*%
X55000000Y4120000D03*
D12*
%TO.P,R2,1*%
%TO.N,Net-(R2-Pad1)*%
X55000000Y60000000D03*
%TD*%
D11*
%TO.P,R1,2*%
%TO.N,/GND*%
X15000000Y4120000D03*
D12*
%TO.P,R1,1*%
%TO.N,Net-(R1-Pad1)*%
X15000000Y60000000D03*
%TD*%
D13*
%TO.P,J1,1*%
%TO.N,/GND*%
X38000000Y74000000D03*
D14*
%TO.P,J1,2*%
%TO.N,/+V*%
X32920000Y74000000D03*
%TD*%
M02*
